main.c:105:6:init_led	16	static
main.c:118:6:led_off	8	static
main.c:123:6:led_brake	16	static
main.c:174:6:led_hazard	8	static
main.c:194:6:led_indicate	16	static
main.c:216:6:led_update_colour	24	static
main.c:254:5:main	8	static
main.c:311:6:SystemClock_Config	72	static
main.c:348:13:MX_SPI1_Init	8	static
main.c:384:13:MX_DMA_Init	16	static
main.c:402:13:MX_GPIO_Init	32	static
main.c:429:6:Error_Handler	4	static
